%YAML 1.1
%TAG !u! tag:unity3d.com,2011:
--- !u!1001 &5447046668769769675
PrefabInstance:
  m_ObjectHideFlags: 0
  serializedVersion: 2
  m_Modification:
    m_TransformParent: {fileID: 0}
    m_Modifications:
    - target: {fileID: 7673487250857332701, guid: c98043d57e0190845b790d7b92990bee,
        type: 3}
      propertyPath: m_Controller
      value: 
      objectReference: {fileID: 9100000, guid: afc47d0f362dbe74bb91095a6a6f475c, type: 2}
    - target: {fileID: 7673487250857332701, guid: c98043d57e0190845b790d7b92990bee,
        type: 3}
      propertyPath: m_CullingMode
      value: 1
      objectReference: {fileID: 0}
    - target: {fileID: 7673487251499248694, guid: c98043d57e0190845b790d7b92990bee,
        type: 3}
      propertyPath: m_IsActive
      value: 0
      objectReference: {fileID: 0}
    - target: {fileID: 7673487251499248760, guid: c98043d57e0190845b790d7b92990bee,
        type: 3}
      propertyPath: m_Name
      value: Character_RedRobot
      objectReference: {fileID: 0}
    - target: {fileID: 7673487251499248760, guid: c98043d57e0190845b790d7b92990bee,
        type: 3}
      propertyPath: m_Layer
      value: 10
      objectReference: {fileID: 0}
    - target: {fileID: 7673487251499544664, guid: c98043d57e0190845b790d7b92990bee,
        type: 3}
      propertyPath: m_RootOrder
      value: 0
      objectReference: {fileID: 0}
    - target: {fileID: 7673487251499544664, guid: c98043d57e0190845b790d7b92990bee,
        type: 3}
      propertyPath: m_LocalPosition.x
      value: 0
      objectReference: {fileID: 0}
    - target: {fileID: 7673487251499544664, guid: c98043d57e0190845b790d7b92990bee,
        type: 3}
      propertyPath: m_LocalPosition.y
      value: 0
      objectReference: {fileID: 0}
    - target: {fileID: 7673487251499544664, guid: c98043d57e0190845b790d7b92990bee,
        type: 3}
      propertyPath: m_LocalPosition.z
      value: 0
      objectReference: {fileID: 0}
    - target: {fileID: 7673487251499544664, guid: c98043d57e0190845b790d7b92990bee,
        type: 3}
      propertyPath: m_LocalRotation.w
      value: 1
      objectReference: {fileID: 0}
    - target: {fileID: 7673487251499544664, guid: c98043d57e0190845b790d7b92990bee,
        type: 3}
      propertyPath: m_LocalRotation.x
      value: 0
      objectReference: {fileID: 0}
    - target: {fileID: 7673487251499544664, guid: c98043d57e0190845b790d7b92990bee,
        type: 3}
      propertyPath: m_LocalRotation.y
      value: 0
      objectReference: {fileID: 0}
    - target: {fileID: 7673487251499544664, guid: c98043d57e0190845b790d7b92990bee,
        type: 3}
      propertyPath: m_LocalRotation.z
      value: 0
      objectReference: {fileID: 0}
    - target: {fileID: 7673487251499544664, guid: c98043d57e0190845b790d7b92990bee,
        type: 3}
      propertyPath: m_LocalEulerAnglesHint.x
      value: 0
      objectReference: {fileID: 0}
    - target: {fileID: 7673487251499544664, guid: c98043d57e0190845b790d7b92990bee,
        type: 3}
      propertyPath: m_LocalEulerAnglesHint.y
      value: 0
      objectReference: {fileID: 0}
    - target: {fileID: 7673487251499544664, guid: c98043d57e0190845b790d7b92990bee,
        type: 3}
      propertyPath: m_LocalEulerAnglesHint.z
      value: 0
      objectReference: {fileID: 0}
    m_RemovedComponents: []
  m_SourcePrefab: {fileID: 100100000, guid: c98043d57e0190845b790d7b92990bee, type: 3}
