%YAML 1.1
%TAG !u! tag:unity3d.com,2011:
--- !u!114 &11400000
MonoBehaviour:
  m_ObjectHideFlags: 0
  m_CorrespondingSourceObject: {fileID: 0}
  m_PrefabInstance: {fileID: 0}
  m_PrefabAsset: {fileID: 0}
  m_GameObject: {fileID: 0}
  m_Enabled: 1
  m_EditorHideFlags: 0
  m_Script: {fileID: 11500000, guid: 19cedb8044c46b54fa55625aa49120a4, type: 3}
  m_Name: StandardNpc
  m_EditorClassIdentifier: 
  moveSpeed: 2
  jumpForce: 2
  gravity: -9.81
  gravityForceWhenPlayerIsOnGround: -2
